<?xml version="1.0" encoding="UTF-8"?>
<!-- Generated by org.testng.reporters.JUnitXMLReporter -->
<testsuite ignored="0" hostname="Amreens-MacBook-Pro.local" failures="1" tests="1" name="Default test" time="0.784" errors="0" timestamp="2024-02-23T14:26:02 CST">
  <testcase classname="io.cucumber.testng.AbstractTestNGCucumberTests" name="runScenario" time="0.709">
    <failure type="java.lang.AssertionError" message="expected [{&amp;quot;page&amp;quot;:2,&amp;quot;per_page&amp;quot;:6,&amp;quot;total&amp;quot;:12,&amp;quot;total_pages&amp;quot;:2,&amp;quot;data&amp;quot;:[{&amp;quot;id&amp;quot;:7,&amp;quot;email&amp;quot;:&amp;quot;michael.lawson@reqres.in&amp;quot;,&amp;quot;first_name&amp;quot;:&amp;quot;Michael&amp;quot;,&amp;quot;last_name&amp;quot;:&amp;quot;Lawson&amp;quot;,&amp;quot;avatar&amp;quot;:&amp;quot;https://reqres.in/img/faces/7-image.jpg&amp;quot;},{&amp;quot;id&amp;quot;:8,&amp;quot;email&amp;quot;:&amp;quot;lindsay.ferguson@reqres.in&amp;quot;,&amp;quot;first_name&amp;quot;:&amp;quot;Lindsay&amp;quot;,&amp;quot;last_name&amp;quot;:&amp;quot;Ferguson&amp;quot;,&amp;quot;avatar&amp;quot;:&amp;quot;https://reqres.in/img/faces/8-image.jpg&amp;quot;},{&amp;quot;id&amp;quot;:9,&amp;quot;email&amp;quot;:&amp;quot;tobias.funke@reqres.in&amp;quot;,&amp;quot;first_name&amp;quot;:&amp;quot;Tobias&amp;quot;,&amp;quot;last_name&amp;quot;:&amp;quot;Funke&amp;quot;,&amp;quot;avatar&amp;quot;:&amp;quot;https://reqres.in/img/faces/9-image.jpg&amp;quot;},{&amp;quot;id&amp;quot;:10,&amp;quot;email&amp;quot;:&amp;quot;byron.fields@reqres.in&amp;quot;,&amp;quot;first_name&amp;quot;:&amp;quot;Byron&amp;quot;,&amp;quot;last_name&amp;quot;:&amp;quot;Fields&amp;quot;,&amp;quot;avatar&amp;quot;:&amp;quot;https://reqres.in/img/faces/10-image.jpg&amp;quot;},{&amp;quot;id&amp;quot;:11,&amp;quot;email&amp;quot;:&amp;quot;george.edwards@reqres.in&amp;quot;,&amp;quot;first_name&amp;quot;:&amp;quot;George&amp;quot;,&amp;quot;last_name&amp;quot;:&amp;quot;Edwards&amp;quot;,&amp;quot;avatar&amp;quot;:&amp;quot;https://reqres.in/img/faces/11-image.jpg&amp;quot;},{&amp;quot;id&amp;quot;:12,&amp;quot;email&amp;quot;:&amp;quot;rachel.howell@reqres.in&amp;quot;,&amp;quot;first_name&amp;quot;:&amp;quot;Rachel&amp;quot;,&amp;quot;last_name&amp;quot;:&amp;quot;Howell&amp;quot;,&amp;quot;avatar&amp;quot;:&amp;quot;https://reqres.in/img/faces/12-image.jpg&amp;quot;}],&amp;quot;support&amp;quot;:{&amp;quot;url&amp;quot;:&amp;quot;https://reqres.in/#support-heading&amp;quot;,&amp;quot;text&amp;quot;:&amp;quot;To keep ReqRes free, contributions towards server costs are appreciated!&amp;quot;}}] but found [null]">
      <![CDATA[java.lang.AssertionError: expected [{"page":2,"per_page":6,"total":12,"total_pages":2,"data":[{"id":7,"email":"michael.lawson@reqres.in","first_name":"Michael","last_name":"Lawson","avatar":"https://reqres.in/img/faces/7-image.jpg"},{"id":8,"email":"lindsay.ferguson@reqres.in","first_name":"Lindsay","last_name":"Ferguson","avatar":"https://reqres.in/img/faces/8-image.jpg"},{"id":9,"email":"tobias.funke@reqres.in","first_name":"Tobias","last_name":"Funke","avatar":"https://reqres.in/img/faces/9-image.jpg"},{"id":10,"email":"byron.fields@reqres.in","first_name":"Byron","last_name":"Fields","avatar":"https://reqres.in/img/faces/10-image.jpg"},{"id":11,"email":"george.edwards@reqres.in","first_name":"George","last_name":"Edwards","avatar":"https://reqres.in/img/faces/11-image.jpg"},{"id":12,"email":"rachel.howell@reqres.in","first_name":"Rachel","last_name":"Howell","avatar":"https://reqres.in/img/faces/12-image.jpg"}],"support":{"url":"https://reqres.in/#support-heading","text":"To keep ReqRes free, contributions towards server costs are appreciated!"}}] but found [null]
at org.testng.Assert.fail(Assert.java:111)
at org.testng.Assert.failNotEquals(Assert.java:1578)
at org.testng.Assert.assertEqualsImpl(Assert.java:150)
at org.testng.Assert.assertEquals(Assert.java:132)
at org.testng.Assert.assertEquals(Assert.java:656)
at org.testng.Assert.assertEquals(Assert.java:666)
at StepDefinitions.GetListOfUsers_Functionality.validateListOfUsers(GetListOfUsers_Functionality.java:77)
at ✽.validate the response of list of users(file:///Users/amreennaziasyed/eclipse-workspace/DSALGO/RestAssured_BddFramework/src/test/resources/Features/GetListOfUsers.feature:6)
]]>
    </failure>
  </testcase> <!-- runScenario -->
</testsuite> <!-- Default test -->
